update,q,r,ht,terrain,resources
0,197N,42E,42,rop,tobacco;cows;clay;watermelons;sand;pearl;jute;mules;maize;fish;cassava;horses;rice;pigs;sheep;carpenters;captains;papermakers;blacksmiths;weavers;sailors;alchemists;colliers;luthiers;outposts;smelters;markets;bakers;guides;spells;stonemasons;tanners;jewelers;ropemakers;dairies;candlemakers;sugarmakers;potters;shipwrights;mercenaries;skilled labor;fletchers;ironsmiths;vinters;unskilled labor;shipping (land);hostels;stonecutters;brickmakers;inns;shipping (water);gemcutters;bellmakers;coopers;brewers;butchers
0,198N,42E,83,pr,watermelons;cows;pigs;maize;jute;tobacco;sheep;cassava;fish;carpenters;papermakers;blacksmiths;weavers;sailors;colliers;outposts;smelters;markets;bakers;guides;spells;stonemasons;tanners;jewelers;ropemakers;dairies;candlemakers;sugarmakers;potters;shipwrights;mercenaries;skilled labor;fletchers;ironsmiths;vinters;unskilled labor;shipping (land);hostels;stonecutters;brickmakers;inns;shipping (water);gemcutters;bellmakers;coopers;brewers;butchers
0,197N,41E,154,p,sheep;cassava;horses;watermelons;pigs;maize;cows;jute;tobacco;carpenters;papermakers;blacksmiths;weavers;colliers;outposts;smelters;markets;bakers;guides;spells;stonemasons;tanners;jewelers;ropemakers;dairies;candlemakers;sugarmakers;potters;shipwrights;mercenaries;skilled labor;fletchers;ironsmiths;vinters;unskilled labor;shipping (land);hostels;stonecutters;brickmakers;inns;gemcutters;bellmakers;coopers;brewers;butchers
0,197N,40E,73,pr,cows;cassava;sheep;horses;watermelons;carpenters;papermakers;blacksmiths;weavers;sailors;colliers;outposts;smelters;markets;bakers;guides;stonemasons;tanners;jewelers;ropemakers;dairies;candlemakers;sugarmakers;potters;shipwrights;mercenaries;skilled labor;fletchers;vinters;unskilled labor;shipping (land);hostels;stonecutters;brickmakers;inns;shipping (water);gemcutters;coopers;brewers;butchers
2,127N,74E,0,fo,fish;apples;sand;inns;markets;ropemakers;brickmakers;skilled labor;potters;outposts;shipping (land);colliers;vinters;coopers;weavers;mercenaries;papermakers;stonecutters;guides;smelters;sugarmakers;blacksmiths;stonemasons;hostels;shipwrights;candlemakers;fletchers;shipping (water);tanners;bakers;brewers;captains;sailors;unskilled labor;butchers
2,128N,76E,0,fo,persimmons;papayas;sand;inns;markets;ropemakers;brickmakers;skilled labor;potters;outposts;shipping (land);colliers;vinters;coopers;weavers;mercenaries;papermakers;stonecutters;guides;smelters;sugarmakers;blacksmiths;stonemasons;hostels;shipwrights;candlemakers;fletchers;shipping (water);tanners;bakers;brewers;captains;sailors;unskilled labor;butchers
